{
"home_input1" : "חפשי  נותן שרות מוכר לך",

"menu_home" : "ראשי",
"menu_history" : "היסטוריית טיפולים",
"menu_update" : "עריכת פרטים אישיים",
"menu_supplier" : "פרטים לנותני שירות",
"menu_supplierlogin" : "כניסת נותני שירות",
"menu_coupons" : "מבצעים והטבות",
"menu_logout" : "התנתקות",
"menu_connectedas" : "מחוברת בתור",

"coupondetails_date" : "בתוקף עד",
"coupondetails_price" : "מחיר",

"listmain_address" : "כתובת",
"listmain_phone" : "טלפון",
"listmain_cat" : "קטגוריות",
"listmain_derug" : "דירוג",


"details_address" : "כתובת",
"details_phone" : "טלפון",
"details_cat" : "קטגוריות",
"details_day" : "יום",
"details_hour" : "שעה",
"details_price" : "מחיר",
"details_nis" : "ש\"ח",
"details_derug" : "דירוג",




"appointments_day" : "יום",
"appointments_week" : "שבוע",
"appointments_search" : "חיפוש",
"appointments_startdate" : "תאריך התחלה",
"appointments_enddate" : "תאריך סיום",
"appointments_nomatches" : "לא נמצאו תורים",
"appointments_sugtipul" : "סוג טיפול",
"appointments_address" : "כתובת",
"appointments_phone" : "טלפון",
"appointments_date" : "תאריך",
"appointments_hour" : "שעה",

"updateinfo_fullname" : "שם מלא",
"updateinfo_phone" : "טלפון",
"updateinfo_password" : "סיסמה",

"supplier_fullname" : "שם מלא",
"supplier_phone" : "טלפון",
"supplier_email" : "מייל",
"supplier_desc" : "תוכן הפנייה",

"supplierlogin_username" : "שם משתמש",
"supplierlogin_password" : "סיסמא",


"suppliermain_address" : "כתובת",
"suppliermain_phone" : "טלפון",



"supplierpersonal_address" : "כתובת",
"supplierpersonal_area" : "אזור",
"supplierpersonal_haifa" : "אזור חיפה והצפון",
"supplierpersonal_bearsheva" : "באר שבע והדרום",
"supplierpersonal_shefela" : "שפלה",
"supplierpersonal_sharon" : "שרון",
"supplierpersonal_telaviv" : "תל אביב וגוש דן",
"supplierpersonal_jeruslem" : "ירושלים והסביבה",
"supplierpersonal_email" : "מייל",
"supplierpersonal_phone" : "טלפון",
"supplierpersonal_video" : "סרטון וידאו",
"supplierpersonal_facebook" : "פייסבוק",
"supplierpersonal_waze" : "WAZE",

"supplierappoint_startdate" : "תאריך התחלה",
"supplierappoint_enddate" : "תאריך סיום",
"supplierappoint_nomatches" : "לא נמצאו תורים",


"editfreeapp_starttime" : "שעת התחלה",
"editfreeapp_endtime" : "שעת סיום",


"editappoint_fullname" : "שם מלא",
"editappoint_phone" : "טלפון",
"editappoint_email" : "אימייל",
"editappoint_date" : "תאריך התור",
"editappoint_starthour" : "שעת התחלה",
"editappoint_endhour" : "שעת סיום",
"editappoint_subcat" : "סוגי טיפול",
"editappoint_desc" : "תיאור",



"register_fullname" : "שם מלא",
"register_phone" : "טלפון",
"register_area" : "אזור",
"register_haifa" : "אזור חיפה והצפון",
"register_beersheva" : "באר שבע והדרום",
"register_shefela" : "שפלה",
"register_sharon" : "שרון",
"register_telaviv" : "תל אביב וגוש דן",
"register_jeruslem" : "ירושלים והסביבה",
"register_email" : "כתובת מייל",
"register_password" : "בחרי סיסמה",

"login_email" : "כתובת מייל",
"login_password" : "סיסמה",


"search_area" : "אזור",
"search_selectarea" : "בחרי אזור",
"search_haifa" : "אזור חיפה והצפון",
"search_bearsheva" : "באר שבע והדרום",
"search_shefela" : "שפלה",
"search_sharon" : "שרון",
"search_telaviv" : "תל אביב וגוש דן",
"search_jeruslem" : "ירושלים והסביבה",
"search_subcat" : "סוגי טיפול",
"search_cat" : "בחרי סוג טיפול",
"search_appointment" : "תור",
"search_service" : "נותני שירות",
"search_date" : "בחרי תאריך",


"list_searchby" : "חפשי תור לפי",
"list_location" : "מיקום",
"list_price" : "מחיר",
"list_day" : "יום",
"list_hour" : "שעה",
"list_price" : "מחיר",
"list_derug" : "דירוג",
"list_phone" : "טלפון",
"list_cat" : "קטגוריות",


"modal_close" : "סגירה",

"commentmodal_desc" : "תוכן התגובה",


"ratings_desc" : "ספרי לנו באופן אישי",
"ratings_send" : "שלחי",


"searchappoint_searchat" : "חפשי תור אצל",
"searchappoint_subcat" : "סוגי טיפול",
"searchappoint_date" : "בחר תאריך",
"searchappoint_day" : "יום",
"searchappoint_hour" : "שעה",
"searchappoint_nis" : "ש\"ח",
"searchappoint_price" : "מחיר",
"searchappoint_derug" : "דירוג",


"addappoint_activetime" : "הזנת זמני פעילות",
"addappoint_newapp" : "הזנת תור חדש",
"addappoint_fullname" : "שם מלא",
"addappoint_phone" : "טלפון",
"addappoint_email" : "מייל",
"addappoint_desc" : "פרטים",
"addappoint_date" : "תאריך",
"addappoint_subcat" : "סוגי טיפול",
"addappoint_cat" : "בחרי קטגוריה",


"orderedappoinment_day" : "יום",
"orderedappoinment_week" : "שבוע",
"orderedappoinment_search" : "חיפוש",
"orderedappoinment_startdate" : "תאריך התחלה",
"orderedappoinment_enddate" : "תאריך סיום",
"orderedappoinment_nomatches" : "לא נמצאו תורים",
"orderedappoinment_fullname" : "שם מלא",
"orderedappoinment_email" : "אימייל",
"orderedappoinment_date" : "תאריך התור",
"orderedappoinment_starthour" : "שעת התחלה",
"orderedappoinment_endhour" : "שעת סיום",


"search_modal_searchat" : "חפשי תור ב",
"search_modal_subcat" : "סוגי טיפול",
"search_modal_selectdate" : "בחרי תאריך",
"search_modal_day" : "יום",
"search_modal_hour" : "שעה",
"search_modal_price" : "מחיר",
"search_modal_nis" : "ש\"ח",
"search_modal_derug" : "דירוג",



"sendbuttonimage" : "hebrew/sendbt.png",
"searchbuttonimage1" : "hebrew/search_button.png",
"searchbuttonimage2" : "hebrew/search_button_1.png",
"searchbuttonimage3" : "hebrew/search_button.jpg",

"searchtorimage" : "hebrew/search_tor.png",
"ordertorimage" : "hebrew/order.png",
"reviewtextimage" : "hebrew/review_text.jpg",
"addtorimage" : "hebrew/add_tor.png",

"issuedetails" : "hebrew/issue_details.png",
"logout" : "hebrew/logout.png",
"uploadimage" : "hebrew/upload_image.jpg",
"addtorimagepng" : "hebrew/addtor.png",
"closeimage" : "hebrew/close.jpg",
"delimage" : "hebrew/del.png",
"deletetorimage" : "hebrew/deletetor.png",
"savedetailsimage" : "hebrew/savedetails.png",
"editimage" : "hebrew/edit.png",


"registerorloginfirstctrl" : "יש תחילה להתחבר או להרשם",
"membersloginctrl" : "כניסת מנוים",
"newmembersregisterctrl" : "הרשמה למנוים חדשים",
"canceltextctrl" : "ביטול",
"loadingtextctrl" : "טוען",
"nomatchestryagainctrl" : "לא נמצאו תוצאות יש לנסות שוב",
"inputsuppliernamectrl" : "יש להזין שם נותן שירות",
"selectareactrl" : "יש לבחור אזור",
"selectpickcatctrl" : "יש לבחור קטגוריה",
"daysoftheweek1ctrl" : "א",
"daysoftheweek2ctrl" : "ב",
"daysoftheweek3ctrl" : "ג",
"daysoftheweek4ctrl" : "ד",
"daysoftheweek5ctrl" : "ה",
"daysoftheweek6ctrl" : "ו",
"daysoftheweek7ctrl" : "שבת",
"confirmtorctrl" : "האם לאשר קביעת תור?",
"oktextctrl" : "אישור",
"thankyoutorctrl" : "תודה , התור שלך נקבע בהצלחה",
"inputcommenttextctrl" : "הזן תוכן התגובה",
"sendtextctrl" : "שליחה",
"thankyoucommentctrl" : "תגובתך התקבלה בהצלחה , תודה צוות MAMI",
"cantratetwicectrl" : "לא ניתן לדרג עסק זה פעמיים",
"inputderugctrl" : "הזני דירוג",
"thankyouderugctrl" : "תודה , דירוג התקבל בהצלחה",
"selectderugctrl" : "יש לבחור דירוג",
"novideofoundtrylaterctrl" : "לא נמצא סרטון יש לנסות מאוחר יותר",
"nomatchestrydifftimehourctrl" : "לא נמצאו תוצאות יש לנסות שוב בתאריך או שעה שונים",
"selectcategoryctrl" : "בחרי קטגורייה",
"inputstartdatectrl" : "יש להזין תאריך התחלה",
"inputenddatectrl" : "יש להזין תאריך סיום",
"deletetorconfirmctrl" : "האם לאשר מחיקת תור?",
"confirmchangetorctrl" : "האם לאשר שינוי תור?",
"inputfullnamectrl" : "יש למלא שם מלא",
"inputphonectrl" : "יש למלא מספר טלפון",
"inputemailctrl" : "יש למלא כתובת מייל",
"formsentctrl" : "טופס נשלח בהצלחה",
"inputusernamectrl" : "יש למלא שם משתמש",
"inputpasswordctrl" : "יש למלא סיסמה",
"wrongusernamectrl" : "שם משתמש או סיסמה שגוים יש לתקן",
"selectoptionctrl" : "בחרי אפשרות:",
"cameractrl" : "מצלמה",
"galleryctrl" : "גלריית תמונות",
"detailssavedctrl" : "פרטים נשמרו בהצלחה",
"notordatefoundctrl" : "לא נמצאו תורים בתאריך שנבחר",
"activitytimectrl" : "זמני פעילות",
"tortextctrl" : "תור",
"confirmdeletectrl" : "האם לאשר מחיקת",
"okdeletedctrl" : "נמחק בהצלחה",
"onedayctrl" : "ראשון",
"twodayctrl" : "שני",
"threedayctrl" : "שלישי",
"fourdayctrl" : "רביעי",
"fivedayctrl" : "חמישי",
"sixdayctrl" : "שישי",
"sevendayctrl" : "שבת",
"tortimeconflictctrl" : "זמן הפעילות הנ\"ל מתנגש עם פגישה קיימת אנא נסי זמן אחר",
"torchangedfreectrl" : "התור הפך לפנוי האם ברצונך לקבוע תור חדש או לחזור ללוח תורים ?",
"backtorimctrl" : "חזרה לתורים",
"newtorctrl" : "תור חדש",
"selectsubcatctrl" : "יש לבחור סוג טיפול",
"selecttimectrl" : "בחרי שעה",
"inputtordatectrl" : "יש להזין תאריך התור",
"inputstarttimectrl" : "יש להזין שעת התחלה",
"inputendtimectrl" : "יש להזין שעת סיום",
"cantaddctrl" : "לא ניתן להוסיף",
"previousdayctrl" : "ליום קודם",
"starttimecantbelargectrl" : "שעת התחלה לא יכול להיות גדול משעת סיום",
"toraddokctrl" : "תור נוסף בהצלחה",
"cantaddtortimedatectrl" : "זמן הפעילות שנבחר חופף לזמן פעילות הקיים במערכת",
"cantaddtortimedatectrl1" : "אין אפשרות להוסיף את התור , התאריך והשעה שנבחרו לא בזמני הפעילות",
"thankyouderugredirectctrl" : "תודה רבה, פרטי המשוב התקבלו בהצלחה, הינך מעובר לעמוד הראשית",
"notratedquestionctrl" : "לא דירגת את שאלה מספר",
"fillinemailctrl" : "יש להזין כתובת מייל",
"fillinpasswordctrl" : "יש להזין סיסמה",
"wrongdetailsctrl" : "פרטי התחברות שגוים יש לנסות שוב",
"fillinfullnamectrl" : "יש להזין שם מלא",
"fillinphonectrl" : "יש להזין מספר טלפון",
"emailinusectrl" : "אימייל בשימוש יש להזין מייל אחר",
"welcomeinctrl" : "ברוכה הבא",
"updatedokctrl" : "עודכן בהצלחה",
"fillinaddressctrl" : "יש להזין כתובת",
"supplierlogin_forgotpasstext" : "שכחתי סיסמה",
"pleaseagreectrl" : "הנני מאשרת את",
"termsofusectrl" : "תנאי השימוש",
"agreetermsctrl" : "יש לאשר תנאי שימוש",
"cantaddtorpassedctrl" : "לא ניתן לחפש תור בזמנים שכבר עברו",
"usernamenotfoundtryagainctrl" : "שם משתמש לא נמצא , אנא נסי שוב",
"usernotfoundtryagainctrl" : "משתמש לא נמצא , אנא נסי שוב",

"addoktextctrl" : "נוסף בהצלחה",
"pluraladdoktext" : "נוספו בהצלחה",

"nofuturetortext" : "לא הוזנו זמני פעילות נוספים (קדימה)"

}